{
    "extends": "../tslint.json",
    "rules": {
        "directive-selector": [
            true,
            "attribute",
            "app",
            "camelCase"
        ],
        "component-selector": [
            true,
            ["element", "attribute"],
            "app",
            "kebab-case"
        ],
        "max-line-length": [true, 200]
    }
}
